		X		Y		Z
media		340.8389  	364.2678  	257.7720
desvio		6.8919   	13.0479    	5.7261
m=[1	334	370	258
2	333	367	261
3	336	368	258
4	336	367	257
5	336	363	256
6	338	364	259
7	339	363	257
8	336	364	257
9	339	360	257
10	339	363	260
11	342	360	258
12	342	355	259
14	340	349	255
15	343	353	254
16	343	354	252
17	341	354	256
18	337	362	259
19	331	368	260
20	336	369	254
21	334	364	256
22	335	359	260
23	329	350	254
24	336	346	257
25	335	360	254
26	337	358	253
27	331	352	250
28	340	357	252
29	340	343	247
30	340	331	247

1	336	358	264
2	336	359	267
3	336	360	265
4	336	362	264
5	334	361	265
6	336	360	263
7	334	365	264
8	335	363	264
9	336	365	262
10	337	367	261
11	337	367	264
12	337	366	260
13	337	365	260
14	335	367	261
15	338	366	262
16	337	367	261
17	339	368	261
18	338	370	261
19	338	368	257
20	342	375	258
21	338	376	261
22	344	373	256
23	343	375	258
24	345	386	256
25	344	394	256
26	346	399	255
27	348	398	255
28	349	401	256
29	348	405	250
30	355	429	248

1	332	368	264
2	336	365	261
3	341	372	264
4	335	368	257
5	336	368	261
6	348	378	272
7	341	371	266
8	339	371	262
9	337	369	258
10	339	367	256
11	338	368	257
12	337	367	259
13	339	366	258
14	340	365	258
17	342	362	257
18	341	361	256
19	343	362	259
20	345	370	260
23	344	363	255
24	344	350	253
25	346	350	260
26	334	386	265
27	345	368	261
28	352	368	253
29	347	366	263
30	342	392	263
31	359	375	254
32	346	344	257

1	332	372	265
2	335	372	265
3	333	372	261
4	336	370	260
5	336	370	260
6	337	369	259
7	340	368	260
8	341	370	258
9	342	369	260
11	343	366	265
12	343	364	260
13	350	361	257
14	350	356	257
15	348	345	261
16	352	342	255
17	352	350	252
18	353	352	254
19	356	349	256
20	359	348	254
21	363	349	251
22	363	349	252
23	362	356	251
24	366	356	252
25	368	350	257
26	369	357	254
27	368	352	244
30	374	374	254
31	376	397	256
32	358	385	265
33	353	362	242

1	333	369	263
2	335	374	264
3	334	372	260
4	336	370	262
5	335	369	263
6	339	370	265
7	338	372	264
8	341	366	262
10	342	366	262
11	344	364	264
12	344	364	262
13	342	363	264
14	344	359	264
15	343	358	264
16	343	357	263
17	344	358	261
18	345	358	258
19	345	359	259
20	345	358	260
21	347	357	255
22	347	357	257
23	345	355	258
24	348	354	255
25	344	354	256
26	345	354	254
27	346	355	255
28	348	355	252
29	346	351	251
30	345	352	253
31	342	344	251
32	347	343	249
33	345	338	246

1	334	382	265
2	336	379	267
3	337	376	264
4	337	375	264
5	339	374	264
6	357	390	287
7	365	393	286
8	346	370	264
9	344	367	261
11	312	341	233
12	345	360	263
13	344	361	258
14	345	358	260
15	344	355	260
16	343	354	259
17	342	353	260
18	345	352	257
19	342	353	257
20	344	350	258
21	345	353	258
22	344	354	256
23	344	352	254
24	344	352	256
25	342	352	252
26	345	352	256
27	343	351	253
28	344	354	252
29	343	352	248
30	342	351	245
31	344	350	247
32	346	345	246
33	348	341	239

1	332	382	263
2	337	377	262
3	334	378	263
4	337	376	263
5	339	371	262
6	339	368	263
7	342	368	262
8	341	366	262
9	342	365	263
10	343	361	262
11	344	361	264
13	342	358	259
14	344	358	260
15	348	358	261

1	341	366	257
2	339	365	260
3	341	364	257
4	341	363	257
5	341	363	259
6	341	356	258
7	343	355	258
8	339	357	257
9	341	354	259
10	345	354	261
14	345	361	261
15	345	364	261
16	346	367	266
17	349	370	263
18	345	374	262
19	344	379	257
20	345	381	265
21	346	379	263
22	346	379	264
23	345	382	258
24	342	387	261
25	342	387	263
26	343	389	261
27	345	390	258
28	341	396	259
29	340	393	257
30	341	392	257
31	341	403	263
32	340	393	257
33	336	384	243
34	342	397	239

1	336	374	259
2	340	368	262
3	339	368	262
4	341	363	258
5	341	364	259
6	339	364	259
7	339	361	259
8	340	360	258
9	338	364	257
10	337	360	258
11	340	360	257
12	339	360	255
13	339	361	257
14	340	362	259
15	342	363	264
16	341	363	259
17	340	365	260
18	339	363	259
19	339	363	261
20	340	363	262
21	338	361	260
22	335	364	260
23	335	362	260
24	339	362	264
25	338	366	261
26	336	363	261
27	333	356	257
28	329	354	256
29	328	350	250
30	329	347	251
31	326	344	254

1	340	365	260
2	339	366	261
3	338	365	259
4	339	364	261
5	339	364	260
6	338	363	260
7	337	362	259
8	337	364	259
9	338	364	259
10	337	363	258
11	337	363	261
12	338	363	258
13	338	359	255
14	339	364	258
15	336	360	255
16	336	364	257
17	336	365	255
18	336	359	258
19	338	361	257
20	337	361	257
21	336	359	253
22	333	360	257
23	335	359	256
24	332	359	253
25	330	357	254
26	331	357	255
27	333	356	254
28	332	354	253
29	334	354	252
30	333	350	255
31	335	346	251
32	333	340	249

1	345	370	262
2	347	369	268
3	344	365	263
4	346	361	260
5	352	361	265
6	352	361	267
7	351	357	263
9	337	350	255
13	353	372	262
14	350	371	264
15	350	377	262
16	349	370	257
17	347	378	258
18	343	373	262
19	342	372	261
20	341	378	261
21	341	379	257
22	338	381	261
23	338	379	260
24	337	382	256
25	335	389	262
26	336	386	265
27	344	389	272
28	345	392	265
29	335	380	254
30	337	387	243
31	343	395	231
32	338	389	248

1	335	376	260
2	336	370	258
3	337	369	260
4	338	368	261
5	339	366	259
6	340	364	258
7	340	359	261
8	339	359	258
9	339	356	260
10	341	351	259
11	341	346	259
12	342	345	256
13	342	343	259
14	341	343	256
15	342	349	255
16	344	348	256
17	344	346	259
18	345	349	257
19	344	355	259
20	345	362	256
21	348	362	254
22	345	359	255
23	342	362	252
24	345	361	245
25	353	360	225
26	352	367	258
27	346	366	266
28	347	369	247
29	353	386	263
30	348	377	255

1	339	367	260
2	340	364	260
3	340	363	259
4	338	363	258
5	341	362	260
6	340	360	258
7	341	358	258
8	340	355	259
9	342	352	257
10	341	354	257
11	343	358	257
12	335	357	252
13	345	361	259
14	342	361	258
15	345	365	262
16	341	359	261
17	342	358	258
18	340	361	261
19	340	361	258
20	340	374	261
21	339	376	260
22	338	373	257
23	339	374	258
24	335	376	259
25	337	380	258
26	332	382	260
27	334	380	254
28	330	369	256
29	333	389	257
30	340	384	237
31	332	380	244
32	334	383	254

1	337	363	258
2	336	363	260
3	340	363	257
4	340	358	259
5	340	357	257
6	342	356	255
7	345	351	256
8	344	349	255
9	345	346	259
10	344	349	256
11	341	356	257
12	342	370	257
13	342	374	257
14	340	369	255
15	341	358	259
16	338	358	258
17	338	354	260
18	341	361	256
19	342	354	258
20	337	358	258
21	336	370	262
22	337	376	263
23	336	367	259
24	336	367	256
25	333	371	261
26	333	368	241
27	337	361	252
28	335	358	248
29	333	361	251
30	331	357	257
31	329	350	256
32	337	369	251

1	335	369	261
2	336	367	261
3	337	368	261
4	339	365	258
5	339	363	258
6	340	359	256
7	339	360	258
8	341	355	258
9	343	351	257
10	342	346	259
11	342	346	253
12	346	349	256
13	347	350	258
14	344	352	258
15	349	362	251
16	343	360	255
17	344	373	255
18	344	357	254
19	341	370	245
20	345	374	243
21	339	342	256
22	337	362	265
23	335	354	262
24	341	360	262
25	348	359	268
26	350	366	273
27	347	383	260
28	349	400	248
29	346	404	253
30	345	396	255
31	347	403	251
32	342	406	254
33	342	395	257
34	342	400	245

1	333	367	263
2	337	364	261
3	334	369	261
4	335	363	262
5	336	362	259
6	337	360	256
7	338	361	260
8	338	362	256
9	338	361	257
10	337	361	258
11	338	358	258
12	340	361	253
13	340	361	256
14	340	360	255
15	340	355	252
16	339	355	254
17	339	353	253
18	340	354	252
19	340	352	254
20	337	353	252
21	340	351	254
22	340	353	256
23	341	347	254
24	338	346	257
25	334	354	259
26	336	348	258
27	335	361	253
28	328	355	256
29	333	345	264
30	329	351	261
31	301	310	267
32	332	357	260
33	327	361	259];