		X		Y		Z
1:
	med	171.3000  	349.4400  	259.1133
	s	2.4488    	4.4744    	6.7957
2:
	med	488.1      	353.83333  	256.6
	s	3.2455442  	5.071855   	5.9438085
m1=[1	171	356	255
2	171	353	260
3	173	350	259
4	169	348	249
5	170	347	262
6	171	348	260
7	171	350	263
8	169	343	253
9	175	354	267
10	170	345	254
11	175	348	262
12	172	352	272
13	173	346	259
14	172	350	259
15	171	350	264
16	173	349	259
17	170	346	252
18	170	352	259
19	170	351	260
20	174	354	263
21	174	349	260
22	171	349	261
23	173	341	255
24	172	352	259
25	174	353	258
26	168	346	256
27	171	368	247
28	167	348	259
29	170	357	258
30	169	348	256
31	171	347	252
32	166	359	280
33	173	352	257
34	171	347	262
35	170	350	265
36	170	350	252
37	171	350	260
38	174	349	267
39	171	350	256
40	175	350	254
41	173	344	260
42	171	336	248
43	171	358	253
44	168	348	263
45	173	346	259
46	172	354	260
47	170	347	256
48	172	355	258
49	171	349	265
50	174	354	263
51	173	352	260
52	165	349	255
53	169	348	253
54	175	350	258
55	171	345	293
56	168	343	248
57	177	335	282
58	171	348	258
59	174	350	260
60	170	349	251
61	172	344	262
62	173	348	258
63	172	348	261
64	169	346	257
65	167	342	257
66	170	352	264
67	176	355	263
68	175	350	262
69	169	346	260
70	170	348	262
71	171	347	263
72	175	341	248
73	167	343	267
74	175	354	258
75	175	352	261
76	170	343	253
77	169	352	248
78	172	349	255
79	171	352	250
80	176	347	264
81	169	345	253
82	169	346	258
83	173	351	255
84	178	354	265
85	167	348	255
86	168	355	257
87	171	349	260
88	174	349	259
89	169	343	252
90	173	350	263
91	169	352	261
92	172	349	262
93	168	341	251
94	171	355	259
95	173	347	260
96	173	346	259
97	171	344	253
98	171	350	256
99	172	349	257
100	171	350	257
101	167	347	250
102	170	349	256
103	172	353	259
104	170	351	262
105	169	353	259
106	168	345	258
107	171	343	260
108	175	352	261
109	170	345	261
110	173	344	253
111	171	348	255
112	171	347	259
113	175	352	262
114	168	348	258
115	163	352	282
116	172	349	259
117	173	347	258
118	167	350	256
119	170	348	259
120	171	350	259
121	171	349	261
122	170	347	256
123	169	349	260
124	172	351	261
125	172	351	259
126	171	350	256
127	170	351	258
128	172	354	262
129	168	346	251
130	172	348	258
131	171	352	259
132	175	356	268
133	172	347	258
134	171	349	263
135	176	352	261
136	172	348	271
137	171	354	248
138	172	350	258
139	172	351	259
140	174	352	264
141	172	352	254
142	171	344	248
143	169	354	261
144	173	354	261
145	170	347	264
146	171	363	287
147	173	350	256
148	172	357	245
149	177	363	255
150	173	353	266];


m2=[1	486	352	257
2	488	355	258
3	490	357	261
4	492	347	258
5	473	354	264
6	488	352	258
7	487	356	258
8	490	347	256
9	489	355	255
10	487	362	270
11	488	353	257
12	487	352	252
13	485	356	256
14	491	350	259
15	484	354	249
16	488	354	256
17	496	360	261
18	486	357	251
19	487	355	256
20	489	354	256
21	488	355	260
22	480	353	258
23	486	352	253
24	491	358	254
25	489	352	252
26	486	342	269
27	489	352	255
28	492	356	257
29	488	349	257
30	490	357	246
31	490	356	256
32	486	356	255
33	484	345	259
34	486	356	255
35	493	359	257
36	490	354	255
37	489	354	255
38	486	358	249
39	494	353	256
40	483	351	255
41	491	351	255
42	490	361	260
43	484	363	241
44	487	353	257
45	489	356	259
46	489	348	272
47	488	351	254
48	488	357	255
49	487	355	258
50	483	356	251
51	483	362	256
52	491	358	261
53	490	355	266
54	485	356	251
55	484	362	261
56	488	355	257
57	488	352	257
58	489	352	268
59	491	360	259
60	489	354	252
61	490	355	256
62	494	331	287
63	490	353	258
64	484	349	255
65	491	354	253
66	496	355	258
67	489	356	255
68	485	350	250
69	486	356	256
70	488	368	245
71	489	350	256
72	489	357	246
73	489	353	253
74	489	359	271
75	486	349	258
76	485	356	255
77	489	352	263
78	490	359	257
79	485	352	263
80	484	349	255
81	489	354	258
82	490	358	263
83	488	355	250
84	485	347	253
85	490	354	257
86	486	357	257
87	489	359	258
88	479	367	225
89	489	361	257
90	489	363	262
91	489	351	256
92	485	349	255
93	490	354	260
94	495	357	263
95	487	357	254
96	487	350	256
97	490	355	254
98	488	358	267
99	487	349	253
100	491	350	253
101	489	361	255
102	488	349	257
103	489	348	267
104	488	361	254
105	491	354	263
106	486	352	255
107	488	353	254
108	492	352	260
109	489	349	252
110	487	347	258
111	486	352	260
112	489	354	255
113	487	353	255
114	490	351	256
115	491	354	262
116	486	349	259
117	488	356	255
118	489	355	258
119	487	354	257
120	481	352	254
121	486	352	260
122	494	357	259
123	487	355	256
124	489	353	252
125	487	353	255
126	489	354	253
127	489	354	255
128	490	353	257
129	489	352	261
130	484	352	250
131	488	351	256
132	493	359	258
133	484	348	257
134	493	353	249
135	490	356	255
136	485	355	255
137	488	353	254
138	494	358	258
139	485	353	251
140	488	352	264
141	498	323	253
142	485	354	260
143	489	356	260
144	490	356	258
145	490	354	258
146	484	352	250
147	488	354	257
148	492	354	257
149	483	353	247
150	487	355	257];